PHA accumulating microbial community dynamics
…
Relative abundance of Genus

## [1] 706

## # A tibble: 24 x 3
##    Genus              mean_rel_abund  mean
##    <fct>                       <dbl> <dbl>
##  1 *Acinetobacter*             119.  2.47 
##  2 *Azoarcus*                   25.8 0.539
##  3 *Bdellovibrio*               32.6 0.679
##  4 *C1-B045*                    22.2 0.463
##  5 *Ca_Amarolinea*              19.5 0.406
##  6 *Ca_Competibacter*           51.1 1.07 
##  7 *Ca_Villigracilis*          140.  2.93 
##  8 *Dechloromonas*             157.  3.27 
##  9 *Dokdonella*                 63.3 1.32 
## 10 *Ferribacterium*             86.8 1.81 
## #  with 14 more rows
…
